Midterm Project Part Two
…
treatment_results %>%
 mutate(Morph = case_when(morph == "mound.crust" ~ "Mounding & Encrusting Corals", morph == "branch" ~ "Branching Corals")) %>%
  drop_na(Morph) %>%
  #removed NAs
  select(- morph) %>%
  #removed column since created a new one with new names
  mutate(growth = growth * 100) %>%
  #after looking at data again and graph, realized that it was not in percent so needed to multiply by 100
  select(Morph, growth, treatment) -> new_morph
  #only shows what I will be graphing so it is cleaner to look like and when deciding how to wrangle data
  
new_morph

## # A tibble: 37,632 x 3
##    Morph                        growth treatment
##    <chr>                         <dbl> <chr>    
##  1 Mounding & Encrusting Corals  -28.5 Control  
##  2 Mounding & Encrusting Corals  -28.5 Control  
##  3 Mounding & Encrusting Corals  -28.5 Control  
##  4 Mounding & Encrusting Corals  -28.5 Control  
##  5 Mounding & Encrusting Corals  -28.5 Control  
##  6 Mounding & Encrusting Corals  -28.5 Control  
##  7 Mounding & Encrusting Corals  -28.5 Control  
##  8 Mounding & Encrusting Corals  -28.5 Control  
##  9 Mounding & Encrusting Corals  -28.5 Control  
## 10 Mounding & Encrusting Corals  -28.5 Control  
## #  with 37,622 more rows
…
treatment_results %>%
   mutate(Morph = case_when(morph == "mound.crust" ~ "Mounding & Encrusting Corals", morph == "branch" ~ "Branching Corals")) %>%
  drop_na(Morph) %>%
  #removed NAs
  select(- morph) %>%
  #removed column since created a new one with new names
  mutate(growth = growth * 100) %>%
  #made it a percent not decimal
  select(Morph, treatment, growth, Percent_cover) -> new_algal_cover
  #selected only columns that were needed 

new_algal_cover

## # A tibble: 37,632 x 4
##    Morph                        treatment growth Percent_cover
##    <chr>                        <chr>      <dbl>         <dbl>
##  1 Mounding & Encrusting Corals Control    -28.5            56
##  2 Mounding & Encrusting Corals Control    -28.5            56
##  3 Mounding & Encrusting Corals Control    -28.5            56
##  4 Mounding & Encrusting Corals Control    -28.5            56
##  5 Mounding & Encrusting Corals Control    -28.5             9
##  6 Mounding & Encrusting Corals Control    -28.5             9
##  7 Mounding & Encrusting Corals Control    -28.5             9
##  8 Mounding & Encrusting Corals Control    -28.5             9
##  9 Mounding & Encrusting Corals Control    -28.5             4
## 10 Mounding & Encrusting Corals Control    -28.5             4
## #  with 37,622 more rows
…
